{
  "collection": "media_type",
  "endpoints": [
    {
      "endpoint": "/api/media_type",
      "method": "POST",
      "preprocessors": [
        {
          "name": "assert_current_user_is_admin",
          "doc": "Restrict request to ADMIN user only"
        },
        {
          "name": "post_auth_preprocessor",
          "doc": "Restrict request to LOGGED IN users only"
        }
      ],
      "postprocessors": [],
      "description": "Create new [media_type](#media_type) object. Expects JSON. Fields shown in `MODEL COLUMNS` below. "
    },
    {
      "endpoint": "/api/media_type",
      "method": "GET",
      "fields": [
        "id",
        "name"
      ],
      "preprocessors": [
        {
          "name": "get_many_auth_preprocessor",
          "doc": "Allow all requests"
        }
      ],
      "postprocessors": [],
      "description": "Get list of [media_type](#media_type) objects matching API query. See [Making API search queries](#api_query) for instructions on making search queries"
    },
    {
      "endpoint": "/api/media_type/<id>",
      "method": "GET",
      "fields": [
        "id",
        "name"
      ],
      "preprocessors": [
        {
          "name": "get_single_auth_preprocessor",
          "doc": "Allow all requests"
        }
      ],
      "postprocessors": [],
      "description": "Get single [media_type](#media_type) object with pk field matching param `id`"
    },
    {
      "endpoint": "/api/media_type/<id>",
      "method": "DELETE",
      "preprocessors": [
        {
          "name": "assert_current_user_is_admin",
          "doc": "Restrict request to ADMIN user only"
        },
        {
          "name": "delete_auth_preprocessor",
          "doc": "Restrict request to OWNER only"
        }
      ],
      "postprocessors": [],
      "description": "Delete single [media_type](#media_type) object with pk field matching param `id`"
    }
  ],
  "description": "\n    Media Type resource: a modifier denoting the type for a [media](#media) resource. This is associated with\n    ",
  "columns": [
    {
      "name": "id",
      "type": "Integer()",
      "nullable": false,
      "unique": null,
      "doc": "Primary key `id`",
      "primary_key": true,
      "foreign_key": null,
      "default": null
    },
    {
      "name": "name",
      "type": "String(length=80)",
      "nullable": false,
      "unique": null,
      "doc": "The name of the media type",
      "primary_key": false,
      "foreign_key": null,
      "default": null
    }
  ],
  "relations": [
    {
      "model": "media",
      "key": "media",
      "doc": null,
      "direction": "ONETOMANY"
    }
  ],
  "hybrid_properties": [],
  "methods": [],
  "association_proxies": []
}