{
  "collection": "roles",
  "endpoints": [
    {
      "endpoint": "/api/roles",
      "method": "POST",
      "preprocessors": [
        {
          "name": "assert_current_user_is_admin",
          "doc": "Restrict request to ADMIN user only"
        },
        {
          "name": "post_auth_preprocessor",
          "doc": "Restrict request to LOGGED IN users only"
        }
      ],
      "postprocessors": [],
      "description": "Create new [roles](#roles) object. Expects JSON. Fields shown in `MODEL COLUMNS` below. "
    },
    {
      "endpoint": "/api/roles/<id>",
      "method": "PATCH",
      "preprocessors": [
        {
          "name": "assert_current_user_is_admin",
          "doc": "Restrict request to ADMIN user only"
        },
        {
          "name": "patch_auth_preprocessor",
          "doc": "Restrict request to OWNER only"
        }
      ],
      "postprocessors": [],
      "description": "Update single [roles](#roles) object with pk field matching param `id`. Expects JSON. Fields shown in `MODEL COLUMNS` below."
    },
    {
      "endpoint": "/api/roles",
      "method": "GET",
      "fields": [],
      "preprocessors": [
        {
          "name": "get_many_auth_preprocessor",
          "doc": "Allow all requests"
        }
      ],
      "postprocessors": [],
      "description": "Get list of [roles](#roles) objects matching API query. See [Making API search queries](#api_query) for instructions on making search queries"
    },
    {
      "endpoint": "/api/roles/<id>",
      "method": "GET",
      "fields": [],
      "preprocessors": [
        {
          "name": "get_single_auth_preprocessor",
          "doc": "Allow all requests"
        }
      ],
      "postprocessors": [],
      "description": "Get single [roles](#roles) object with pk field matching param `id`"
    },
    {
      "endpoint": "/api/roles/<id>",
      "method": "DELETE",
      "preprocessors": [
        {
          "name": "assert_current_user_is_admin",
          "doc": "Restrict request to ADMIN user only"
        },
        {
          "name": "delete_auth_preprocessor",
          "doc": "Restrict request to OWNER only"
        }
      ],
      "postprocessors": [],
      "description": "Delete single [roles](#roles) object with pk field matching param `id`"
    }
  ],
  "description": "\n    Not implemented yet. Not in use.\n    ",
  "columns": [
    {
      "name": "id",
      "type": "Integer()",
      "nullable": false,
      "unique": null,
      "doc": "Primary key `id`",
      "primary_key": true,
      "foreign_key": null,
      "default": null
    },
    {
      "name": "name",
      "type": "String(length=80)",
      "nullable": false,
      "unique": true,
      "doc": null,
      "primary_key": false,
      "foreign_key": null,
      "default": null
    }
  ],
  "relations": [],
  "hybrid_properties": [],
  "methods": [],
  "association_proxies": []
}