{
  "collection": "usergroups",
  "endpoints": [
    {
      "endpoint": "/api/usergroups",
      "method": "GET",
      "fields": [
        "created_at",
        "approved",
        "can_edit",
        "added_by_user",
        "added_by_user.id",
        "added_by_user.first_name",
        "added_by_user.last_name",
        "user",
        "user.id",
        "user.username",
        "user.created_at",
        "user.last_login",
        "user.first_name",
        "user.last_name",
        "user.active",
        "user.is_admin",
        "group",
        "group.id",
        "group.name",
        "can_add_members",
        "can_share_data",
        "has_agreed",
        "group.is_public",
        "group.is_restricted",
        "group.user_id",
        "group.requires_approval",
        "group.requires_agreement",
        "group.group_type_id",
        "group.groupinfo",
        "group.created_at"
      ],
      "preprocessors": [
        {
          "name": "get_many_auth_preprocessor",
          "doc": "Allow all requests"
        }
      ],
      "postprocessors": [],
      "description": "Get list of [usergroups](#usergroups) objects matching API query. See [Making API search queries](#api_query) for instructions on making search queries"
    },
    {
      "endpoint": "/api/usergroups/<group_id>",
      "method": "GET",
      "fields": [
        "created_at",
        "approved",
        "can_edit",
        "added_by_user",
        "added_by_user.id",
        "added_by_user.first_name",
        "added_by_user.last_name",
        "user",
        "user.id",
        "user.username",
        "user.created_at",
        "user.last_login",
        "user.first_name",
        "user.last_name",
        "user.active",
        "user.is_admin",
        "group",
        "group.id",
        "group.name",
        "can_add_members",
        "can_share_data",
        "has_agreed",
        "group.is_public",
        "group.is_restricted",
        "group.user_id",
        "group.requires_approval",
        "group.requires_agreement",
        "group.group_type_id",
        "group.groupinfo",
        "group.created_at"
      ],
      "preprocessors": [
        {
          "name": "get_single_auth_preprocessor",
          "doc": "Allow all requests"
        }
      ],
      "postprocessors": [],
      "description": "Get single [usergroups](#usergroups) object with pk field matching param `group_id`"
    }
  ],
  "description": "\n    User / Group Association resource.\n    ",
  "columns": [
    {
      "name": "user_id",
      "type": "Integer()",
      "nullable": false,
      "unique": null,
      "doc": null,
      "primary_key": true,
      "foreign_key": "users.id",
      "default": null
    },
    {
      "name": "group_id",
      "type": "Integer()",
      "nullable": false,
      "unique": null,
      "doc": null,
      "primary_key": true,
      "foreign_key": "groups.id",
      "default": null
    },
    {
      "name": "created_at",
      "type": "DateTime()",
      "nullable": true,
      "unique": null,
      "doc": null,
      "primary_key": false,
      "foreign_key": null,
      "default": "function"
    },
    {
      "name": "approved",
      "type": "Boolean()",
      "nullable": true,
      "unique": null,
      "doc": null,
      "primary_key": false,
      "foreign_key": null,
      "default": "False"
    },
    {
      "name": "can_edit",
      "type": "Boolean()",
      "nullable": true,
      "unique": null,
      "doc": null,
      "primary_key": false,
      "foreign_key": null,
      "default": "False"
    },
    {
      "name": "can_add_members",
      "type": "Boolean()",
      "nullable": true,
      "unique": null,
      "doc": null,
      "primary_key": false,
      "foreign_key": null,
      "default": "False"
    },
    {
      "name": "can_share_data",
      "type": "Boolean()",
      "nullable": true,
      "unique": null,
      "doc": null,
      "primary_key": false,
      "foreign_key": null,
      "default": "False"
    },
    {
      "name": "has_agreed",
      "type": "Boolean()",
      "nullable": true,
      "unique": null,
      "doc": null,
      "primary_key": false,
      "foreign_key": null,
      "default": "False"
    },
    {
      "name": "added_by_user_id",
      "type": "Integer()",
      "nullable": true,
      "unique": null,
      "doc": null,
      "primary_key": false,
      "foreign_key": "users.id",
      "default": null
    }
  ],
  "relations": [
    {
      "model": "users",
      "key": "user",
      "doc": null,
      "direction": "MANYTOONE"
    },
    {
      "model": "users",
      "key": "added_by_user",
      "doc": null,
      "direction": "MANYTOONE"
    },
    {
      "model": "groups",
      "key": "group",
      "doc": null,
      "direction": "MANYTOONE"
    }
  ],
  "hybrid_properties": [],
  "methods": [],
  "association_proxies": []
}