{
  "collection": "vocab_element_names",
  "endpoints": [
    {
      "endpoint": "/api/vocab_element_names",
      "method": "POST",
      "preprocessors": [
        {
          "name": "post_auth_preprocessor",
          "doc": "Restrict request to LOGGED IN users only"
        }
      ],
      "postprocessors": [],
      "description": "Create new [vocab_element_names](#vocab_element_names) object. Expects JSON. Fields shown in `MODEL COLUMNS` below. "
    },
    {
      "endpoint": "/api/vocab_element_names/<id>",
      "method": "PATCH",
      "preprocessors": [
        {
          "name": "patch_auth_preprocessor",
          "doc": "Restrict request to OWNER only"
        }
      ],
      "postprocessors": [],
      "description": "Update single [vocab_element_names](#vocab_element_names) object with pk field matching param `id`. Expects JSON. Fields shown in `MODEL COLUMNS` below."
    },
    {
      "endpoint": "/api/vocab_element_names",
      "method": "GET",
      "fields": [],
      "preprocessors": [
        {
          "name": "get_many_auth_preprocessor",
          "doc": "Allow all requests"
        }
      ],
      "postprocessors": [],
      "description": "Get list of [vocab_element_names](#vocab_element_names) objects matching API query. See [Making API search queries](#api_query) for instructions on making search queries"
    },
    {
      "endpoint": "/api/vocab_element_names/<id>",
      "method": "GET",
      "fields": [],
      "preprocessors": [
        {
          "name": "get_single_auth_preprocessor",
          "doc": "Allow all requests"
        }
      ],
      "postprocessors": [],
      "description": "Get single [vocab_element_names](#vocab_element_names) object with pk field matching param `id`"
    },
    {
      "endpoint": "/api/vocab_element_names/<id>",
      "method": "DELETE",
      "preprocessors": [
        {
          "name": "delete_auth_preprocessor",
          "doc": "Restrict request to OWNER only"
        }
      ],
      "postprocessors": [],
      "description": "Delete single [vocab_element_names](#vocab_element_names) object with pk field matching param `id`"
    }
  ],
  "description": "\n    VocabElement Names resource.\n    ",
  "columns": [
    {
      "name": "id",
      "type": "Integer()",
      "nullable": false,
      "unique": null,
      "doc": "Primary key `id`",
      "primary_key": true,
      "foreign_key": null,
      "default": null
    },
    {
      "name": "name",
      "type": "String(length=128)",
      "nullable": false,
      "unique": false,
      "doc": null,
      "primary_key": false,
      "foreign_key": null,
      "default": null
    },
    {
      "name": "vocab_element_id",
      "type": "Integer()",
      "nullable": false,
      "unique": null,
      "doc": null,
      "primary_key": false,
      "foreign_key": "vocab_element.id",
      "default": null
    }
  ],
  "relations": [
    {
      "model": "vocab_element",
      "key": "vocab_element",
      "doc": null,
      "direction": "MANYTOONE"
    }
  ],
  "hybrid_properties": [],
  "methods": [],
  "association_proxies": []
}